\relax 
\@writefile{toc}{\contentsline {section}{\numberline {1}Algebra}{1}}
\@writefile{toc}{\contentsline {section}{\numberline {2}Trigonometry}{1}}
\@writefile{toc}{\contentsline {section}{\numberline {3}Algebra (some very very very very very long title)}{1}}
\@writefile{toc}{\contentsline {section}{\numberline {4}Trigonometry}{1}}
\@writefile{toc}{\contentsline {section}{\numberline {5}Algebra}{1}}
\@writefile{toc}{\contentsline {section}{\numberline {6}Trigonometry}{1}}
\@writefile{toc}{\contentsline {section}{\numberline {7}The End}{1}}
